ISSS608-VAA - Take-home Exercise 2
…
Review the output of tidygraph’s graph object

The output below reveals that mc2_graph is a tbl_graph object with 2358 nodes and 4685 edges.

Show the code

mc2_graph

# A tbl_graph: 191 nodes and 291 edges
#
# A directed acyclic simple graph with 9 components
#
# A tibble: 191 × 1
  id                                             
  <chr>                                          
1 1 Ltd. Liability Co Cargo                      
2 Adriatic Catch Ltd. Liability Co Transportation
3 Adriatic Tuna AS Solutions                     
4 Aqua Adventures Carriers Seabed                
5 Aqua Azul LC International                     
6 Aqua Mermaid Sagl Merchants                    
# ℹ 185 more rows
#
# A tibble: 291 × 5
   from    to hscode  Year weights
  <int> <int> <chr>  <dbl>   <int>
1     1   108 306170  2034      24
2     2   109 306170  2034      47
3     2   110 306170  2034      23
# ℹ 288 more rows
…
