ISSS608-VAA - Take-home Exercise 1
…
Importing the data from csv using read_csv() from Participants and FinancialJounal csv files.

#Import Data
participants <- read_csv("data/Participants.csv")
financial_journal <-read_csv("data/FinancialJournal.csv")

2.3 Data wrangling

2.3.1 Check data types

First, check if all data imported are showing the correct types.

participants

# A tibble: 1,011 × 7
   participantId householdSize haveKids   age educationLevel      interestGroup
           <dbl>         <dbl> <lgl>    <dbl> <chr>               <chr>        
 1             0             3 TRUE        36 HighSchoolOrCollege H            
 2             1             3 TRUE        25 HighSchoolOrCollege B            
 3             2             3 TRUE        35 HighSchoolOrCollege A            
 4             3             3 TRUE        21 HighSchoolOrCollege I            
 5             4             3 TRUE        43 Bachelors           H            
 6             5             3 TRUE        32 HighSchoolOrCollege D            
 7             6             3 TRUE        26 HighSchoolOrCollege I            
 8             7             3 TRUE        27 Bachelors           A            
 9             8             3 TRUE        20 Bachelors           G            
10             9             3 TRUE        35 Bachelors           D            
# ℹ 1,001 more rows
# ℹ 1 more variable: joviality <dbl>
…
The code chunk below uses mutate_at() from dplyr package to convert data type.

# convert participantId, educationLevel and interestGroup to factor
col1 <- c("participantId", "educationLevel", "interestGroup")
participants %>% mutate_at(col1, as.factor) 

# convert householdSize and ago to integer
col2 <- c("householdSize", "age")
participants %>% mutate_at(col2, as.integer) 

Then we will check the same for financial_journal.

financial_journal

# A tibble: 1,513,636 × 4
   participantId timestamp           category  amount
           <dbl> <dttm>              <chr>      <dbl>
 1             0 2022-03-01 00:00:00 Wage      2473. 
 2             0 2022-03-01 00:00:00 Shelter   -555. 
 3             0 2022-03-01 00:00:00 Education  -38.0
 4             1 2022-03-01 00:00:00 Wage      2047. 
 5             1 2022-03-01 00:00:00 Shelter   -555. 
 6             1 2022-03-01 00:00:00 Education  -38.0
 7             2 2022-03-01 00:00:00 Wage      2437. 
 8             2 2022-03-01 00:00:00 Shelter   -557. 
 9             2 2022-03-01 00:00:00 Education  -12.8
10             3 2022-03-01 00:00:00 Wage      2367. 
# ℹ 1,513,626 more rows
…
